<?xml version="1.0" encoding="UTF-8" standalone="no"?>
<svg>
    <text
        style="font-size:$fontsize;font-family:$fontfamily;-inkscape-font-specification:'$font,Normal';fill:#000000;fill-opacity:1;stroke:none;"
        xml:space="preserve"
        ><tspan sodipodi:role="line">$text</tspan></text>
</svg>
